\relax 
\citation{lyubashevsky10}
\citation{gottert12,roy14,popelmann14-2,poppelmann14}
\citation{gottert12,pöppelmann15,liu15,clercq15}
\citation{buchmann16-2}
\citation{buchmann16-2,wunderer16}
\citation{gopfert17}
\citation{fan12}
\citation{saarinen16,reparaz15,reparaz16,oder16,park16,primas17}
\citation{saarinen16}
\citation{reparaz15}
\citation{reparaz16}
\citation{oder16}
\citation{park16}
\citation{primas17}
\citation{buchmann16}
\citation{reparaz15,reparaz16}
\citation{oder16}
\citation{buchmann16-2}
\citation{wunderer16,gopfert17,albrecht17}
\@writefile{toc}{\contentsline {section}{\numberline {I}Introduction}{1}}
\citation{buchmann16}
\citation{wunderer16}
\citation{gopfert17}
\citation{bogdanov07}
\citation{lindner11}
\@writefile{lof}{\contentsline {figure}{\numberline {1}{\ignorespaces B-RLWE public-key encryption scheme}}{2}}
\newlabel{fig:B-RLWE_scheme}{{1}{2}}
\@writefile{toc}{\contentsline {section}{\numberline {II}B-RLWE Public-key Encryption Scheme}{2}}
\@writefile{lof}{\contentsline {figure}{\numberline {2}{\ignorespaces (a) B-RLWE vs. (b) RLWE decryption example. Note the difference in secret key $r_2$; while B-RLWE works with binary coefficients, RLWE samples them from Gaussian distribution, which, for the example, is between 0 and 255.}}{2}}
\newlabel{fig:dec_example}{{2}{2}}
\@writefile{lof}{\contentsline {figure}{\numberline {3}{\ignorespaces Hardware architecture of B-RLWE including side-channel defenses}}{3}}
\newlabel{fig:hw_arch}{{3}{3}}
\@writefile{toc}{\contentsline {section}{\numberline {III}Side-channel Analysis of B-RLWE Hardware}{3}}
\@writefile{toc}{\contentsline {subsection}{\numberline {\unhbox \voidb@x \hbox {III-A}}Area-optimized Hardware Design}{3}}
\@writefile{toc}{\contentsline {subsection}{\numberline {\unhbox \voidb@x \hbox {III-B}}SPA Attack and Countermeasure of B-RLWE}{3}}
\newlabel{sec:new_channels}{{\unhbox \voidb@x \hbox {III-B}}{3}}
\@writefile{lot}{\contentsline {table}{\numberline {I}{\ignorespaces DPA attack intuition for SPA-secure circuit. Value of $r_2[i-1]$ correlates with power consumption at row $i$}}{3}}
\newlabel{table:DPA}{{I}{3}}
\pgfsyspdfmark {pgfid1}{27985409}{44155997}
\pgfsyspdfmark {pgfid2}{29722121}{44155997}
\pgfsyspdfmark {pgfid3}{29722121}{44155997}
\pgfsyspdfmark {pgfid4}{30500152}{44155997}
\pgfsyspdfmark {pgfid5}{32499008}{44155997}
\pgfsyspdfmark {pgfid6}{32499008}{44155997}
\pgfsyspdfmark {pgfid7}{33277039}{44155997}
\pgfsyspdfmark {pgfid8}{35013751}{44155997}
\pgfsyspdfmark {pgfid9}{35013751}{44155997}
\pgfsyspdfmark {pgfid10}{35791782}{44155997}
\pgfsyspdfmark {pgfid11}{37790638}{44155997}
\pgfsyspdfmark {pgfid12}{37790638}{44155997}
\@writefile{toc}{\contentsline {subsection}{\numberline {\unhbox \voidb@x \hbox {III-C}}DPA Attack and Countermeasure of B-RLWE}{3}}
\newlabel{sec:DPA}{{\unhbox \voidb@x \hbox {III-C}}{3}}
\@writefile{toc}{\contentsline {subsubsection}{\numberline {\unhbox \voidb@x \hbox {III-C}1}Attacking SPA-secure Executions with DPA}{3}}
\citation{trivium08}
\citation{popelmann14-2}
\citation{reparaz15}
\citation{oder16}
\citation{reparaz15}
\citation{reparaz16}
\citation{messerges00}
\citation{howe16}
\citation{gottert12}
\citation{poppelmann14}
\citation{popelmann14-2}
\citation{roy14}
\citation{reparaz15}
\@writefile{lof}{\contentsline {figure}{\numberline {4}{\ignorespaces Example of random initialization with masked threshold decoder.}}{4}}
\newlabel{fig:randominit}{{4}{4}}
\@writefile{toc}{\contentsline {subsubsection}{\numberline {\unhbox \voidb@x \hbox {III-C}2}Novel DPA countermeasure with Random Initialization and Masking}{4}}
\@writefile{toc}{\contentsline {subsubsection}{\numberline {\unhbox \voidb@x \hbox {III-C}3}Comparison of Proposed Countermeasure with Prior Methods}{4}}
\@writefile{lot}{\contentsline {table}{\numberline {II}{\ignorespaces Comparison with previous LWE-based decryption hardware}}{4}}
\newlabel{table:HW_result}{{II}{4}}
\newlabel{sec:higher_order}{{\unhbox \voidb@x \hbox {III-C}4}{4}}
\@writefile{toc}{\contentsline {subsubsection}{\numberline {\unhbox \voidb@x \hbox {III-C}4}Higher-order DPA Attacks}{4}}
\@writefile{toc}{\contentsline {section}{\numberline {IV}Implementation Cost of B-RLWE Hardware}{4}}
\citation{reparaz15}
\citation{brier04}
\citation{reparaz15}
\citation{reparaz16}
\citation{oder16}
\citation{schneider15}
\@writefile{lof}{\contentsline {figure}{\numberline {5}{\ignorespaces Difference-of-means based SPA-resistance tests without (a) and with (b) the SPA countermeasure. Figures show the evolution of the difference-of-means at the maximum leak point for 150000 traces. Dashed lines mark the confidence interval for difference-of-means equal to 0 with 99.99\%. In the baseline design (a), starting from 200 traces, the attack can successfully estimate the correct guess with a confidence of 99.99\%. After applying the SPA countermeasure (b), the SPA leak is mitigated even after 150000 measurements. This test is applied on $r_2[2]$ when $r_2[1]$ and $r_2[0]$ is fixed to `1' and `0', respectively.}}{5}}
\newlabel{fig:spatest}{{5}{5}}
\@writefile{toc}{\contentsline {section}{\numberline {V}Evaluation of Side-channel Attack Resilience}{5}}
\@writefile{toc}{\contentsline {subsection}{\numberline {\unhbox \voidb@x \hbox {V-A}}Testing SPA Resilience}{5}}
\newlabel{sec:SPA-test}{{\unhbox \voidb@x \hbox {V-A}}{5}}
\@writefile{toc}{\contentsline {subsection}{\numberline {\unhbox \voidb@x \hbox {V-B}}Testing DPA Resilience}{5}}
\@writefile{lof}{\contentsline {figure}{\numberline {6}{\ignorespaces First-order DPA attack while the masks turned off. This attack makes hypothesis on intermediate computation $mult[3]$ where $mult=c_1\cdot r_2$. The top trace, depicted in blue, shows the mean power consumption of the FPGA at each evaluation time. In the middle, green trace presents the correlation of correct guess which leaks the value of the key bit $r_2[0]$ at the expected time interval. At the bottom, the red trace displays the correlation of wrong guess; no correlations are observed. Dashed lines mark the confidence interval of $\rho =0$ with 99.99\%. }}{5}}
\newlabel{fig:pearson_time}{{6}{5}}
\@writefile{toc}{\contentsline {subsubsection}{\numberline {\unhbox \voidb@x \hbox {V-B}1}DPA with PRNG off}{5}}
\citation{kocher01}
\bibstyle{IEEEtran}
\bibdata{paper}
\bibcite{lyubashevsky10}{{1}{}{{}}{{}}}
\bibcite{gottert12}{{2}{}{{}}{{}}}
\bibcite{roy14}{{3}{}{{}}{{}}}
\bibcite{popelmann14-2}{{4}{}{{}}{{}}}
\bibcite{poppelmann14}{{5}{}{{}}{{}}}
\bibcite{pöppelmann15}{{6}{}{{}}{{}}}
\bibcite{liu15}{{7}{}{{}}{{}}}
\bibcite{clercq15}{{8}{}{{}}{{}}}
\bibcite{buchmann16-2}{{9}{}{{}}{{}}}
\bibcite{wunderer16}{{10}{}{{}}{{}}}
\bibcite{gopfert17}{{11}{}{{}}{{}}}
\bibcite{fan12}{{12}{}{{}}{{}}}
\bibcite{saarinen16}{{13}{}{{}}{{}}}
\bibcite{reparaz15}{{14}{}{{}}{{}}}
\bibcite{reparaz16}{{15}{}{{}}{{}}}
\bibcite{oder16}{{16}{}{{}}{{}}}
\bibcite{park16}{{17}{}{{}}{{}}}
\bibcite{primas17}{{18}{}{{}}{{}}}
\bibcite{buchmann16}{{19}{}{{}}{{}}}
\bibcite{albrecht17}{{20}{}{{}}{{}}}
\bibcite{bogdanov07}{{21}{}{{}}{{}}}
\bibcite{lindner11}{{22}{}{{}}{{}}}
\bibcite{trivium08}{{23}{}{{}}{{}}}
\bibcite{messerges00}{{24}{}{{}}{{}}}
\bibcite{howe16}{{25}{}{{}}{{}}}
\bibcite{brier04}{{26}{}{{}}{{}}}
\bibcite{schneider15}{{27}{}{{}}{{}}}
\bibcite{kocher01}{{28}{}{{}}{{}}}
\providecommand\NAT@force@numbers{}\NAT@force@numbers
\@writefile{lof}{\contentsline {figure}{\numberline {7}{\ignorespaces DPA resilience evaluation using (a) first-order attack on the baseline design, (b) first-order attack on the masked design, and (c) second-order attack on the masked design. Results show the evolution of the correlation coefficient $\rho $ at the maximum leak point, note the increase in number of measurements for (b) and (c). Dashed lines mark the confidence interval of $\rho =0$ with 99.99\%; DPA attack succeeds if correlation crosses this threshold for the correct key guess. Starting from 2000 traces in (a), DPA estimates the correct key. In (b), even after 150000 traces, DPA fails. In (c), starting from 80000 traces, DPA estimates the correct key.}}{6}}
\newlabel{fig:pearson_evol_all}{{7}{6}}
\@writefile{toc}{\contentsline {subsubsection}{\numberline {\unhbox \voidb@x \hbox {V-B}2}DPA with PRNG on}{6}}
\newlabel{sec:second-DPA}{{\unhbox \voidb@x \hbox {V-B}3}{6}}
\@writefile{toc}{\contentsline {subsubsection}{\numberline {\unhbox \voidb@x \hbox {V-B}3}Second-order DPA with PRNG on}{6}}
\@writefile{toc}{\contentsline {section}{\numberline {VI}Conclusions}{6}}
