% Generated by IEEEtran.bst, version: 1.14 (2015/08/26)
\begin{thebibliography}{10}
\providecommand{\url}[1]{#1}
\csname url@samestyle\endcsname
\providecommand{\newblock}{\relax}
\providecommand{\bibinfo}[2]{#2}
\providecommand{\BIBentrySTDinterwordspacing}{\spaceskip=0pt\relax}
\providecommand{\BIBentryALTinterwordstretchfactor}{4}
\providecommand{\BIBentryALTinterwordspacing}{\spaceskip=\fontdimen2\font plus
\BIBentryALTinterwordstretchfactor\fontdimen3\font minus
  \fontdimen4\font\relax}
\providecommand{\BIBforeignlanguage}[2]{{%
\expandafter\ifx\csname l@#1\endcsname\relax
\typeout{** WARNING: IEEEtran.bst: No hyphenation pattern has been}%
\typeout{** loaded for the language `#1'. Using the pattern for}%
\typeout{** the default language instead.}%
\else
\language=\csname l@#1\endcsname
\fi
#2}}
\providecommand{\BIBdecl}{\relax}
\BIBdecl

\bibitem{lyubashevsky10}
V.~Lyubashevsky, C.~Peikert, and O.~Regev, \emph{On ideal lattices and learning
  with errors over rings}.\hskip 1em plus 0.5em minus 0.4em\relax Berlin,
  Heidelberg: Springer Berlin Heidelberg, 2010, pp. 1--23.

\bibitem{gottert12}
N.~G{\"o}ttert, T.~Feller, M.~Schneider, J.~Buchmann, and S.~Huss, \emph{On the
  design of hardware building blocks for modern lattice-based encryption
  schemes}.\hskip 1em plus 0.5em minus 0.4em\relax Berlin, Heidelberg: Springer
  Berlin Heidelberg, 2012, pp. 512--529.

\bibitem{roy14}
S.~S. Roy, F.~Vercauteren, N.~Mentens, D.~D. Chen, and I.~Verbauwhede,
  \emph{Compact {Ring-LWE} cryptoprocessor}.\hskip 1em plus 0.5em minus
  0.4em\relax Berlin, Heidelberg: Springer Berlin Heidelberg, 2014, pp.
  371--391.

\bibitem{popelmann14-2}
T.~P\"{o}ppelmann and T.~G\"{u}neysu, ``Area optimization of lightweight
  lattice-based encryption on reconfigurable hardware,'' in \emph{2014 IEEE
  International Symposium on Circuits and Systems (ISCAS)}, June 2014, pp.
  2796--2799.

\bibitem{poppelmann14}
T.~P{\"o}ppelmann and T.~G{\"u}neysu, \emph{Towards practical lattice-based
  public-key encryption on reconfigurable hardware}.\hskip 1em plus 0.5em minus
  0.4em\relax Berlin, Heidelberg: Springer Berlin Heidelberg, 2014, pp. 68--85.

\bibitem{pöppelmann15}
T.~P{\"o}ppelmann, T.~Oder, and T.~G{\"u}neysu, \emph{High-performance ideal
  lattice-based cryptography on 8-bit {ATxmega} microcontrollers}.\hskip 1em
  plus 0.5em minus 0.4em\relax Cham: Springer International Publishing, 2015,
  pp. 346--365.

\bibitem{liu15}
Z.~Liu, H.~Seo, S.~Sinha~Roy, J.~Gro{\ss}sch{\"a}dl, H.~Kim, and
  I.~Verbauwhede, \emph{Efficient {Ring-LWE} encryption on 8-bit {AVR}
  processors}.\hskip 1em plus 0.5em minus 0.4em\relax Berlin, Heidelberg:
  Springer Berlin Heidelberg, 2015, pp. 663--682.

\bibitem{clercq15}
R.~{De Clercq}, S.~S. Roy, F.~Vercauteren, and I.~Verbauwhede, ``Efficient
  software implementation of {Ring-LWE} encryption,'' in \emph{2015 Design,
  Automation Test in Europe Conference Exhibition (DATE)}, March 2015, pp.
  339--344.

\bibitem{buchmann16-2}
J.~Buchmann, F.~G{\"o}pfert, R.~Player, and T.~Wunderer, ``On the hardness of
  {LWE} with binary error: revisiting the hybrid lattice-reduction and
  meet-in-the-middle attack,'' in \emph{International Conference on Cryptology
  in Africa}.\hskip 1em plus 0.5em minus 0.4em\relax Springer, 2016, pp.
  24--43.

\bibitem{wunderer16}
T.~Wunderer, ``Revisiting the hybrid attack: Improved analysis and refined
  security estimates,'' Cryptology ePrint Archive, Report 2016/733, 2016.

\bibitem{gopfert17}
F.~G{\"o}pfert, C.~van Vredendaal, and T.~Wunderer, \emph{A Hybrid Lattice
  Basis Reduction and Quantum Search Attack on LWE}.\hskip 1em plus 0.5em minus
  0.4em\relax Cham: Springer International Publishing, 2017, pp. 184--202.

\bibitem{fan12}
J.~Fan and I.~Verbauwhede, \emph{An updated survey on secure ECC
  Implementations: Attacks, countermeasures and cost}.\hskip 1em plus 0.5em
  minus 0.4em\relax Berlin, Heidelberg: Springer Berlin Heidelberg, 2012, pp.
  265--282.

\bibitem{saarinen16}
M.-J.~O. Saarinen, ``Arithmetic coding and blinding countermeasures for lattice
  signatures,'' Cryptology ePrint Archive, Report 2016/276, 2016.

\bibitem{reparaz15}
O.~Reparaz, S.~Sinha~Roy, F.~Vercauteren, and I.~Verbauwhede, \emph{A masked
  {Ring-LWE} implementation}.\hskip 1em plus 0.5em minus 0.4em\relax Berlin,
  Heidelberg: Springer Berlin Heidelberg, 2015, pp. 683--702.

\bibitem{reparaz16}
O.~Reparaz, R.~De~Clercq, S.~S. Roy, F.~Vercauteren, and I.~Verbauwhede,
  \emph{Additively homomorphic {Ring-LWE} masking}.\hskip 1em plus 0.5em minus
  0.4em\relax Cham: Springer International Publishing, 2016, pp. 233--244.

\bibitem{oder16}
T.~Oder, T.~Schneider, T.~P\"{o}ppelmann, and T.~G\"{u}neysu, ``Practical
  {CCA2}-secure and masked {Ring-LWE} implementation,'' Cryptology ePrint
  Archive, Report 2016/1109, 2016.

\bibitem{park16}
A.~Park and D.~G. Han, ``Chosen ciphertext simple power analysis on software
  8-bit implementation of {Ring-LWE} encryption,'' in \emph{2016 IEEE Asian
  Hardware-Oriented Security and Trust (AsianHOST)}, Dec 2016, pp. 1--6.

\bibitem{primas17}
R.~Primas, P.~Pessl, and S.~Mangard, ``Single-trace side-channel attacks on
  masked lattice-based encryption,'' Cryptology ePrint Archive, Report
  2017/594, 2017.

\bibitem{buchmann16}
J.~Buchmann, F.~G\"{o}pfert, T.~G\"{u}neysu, T.~Oder, and T.~P\"{o}ppelmann,
  ``High-performance and lightweight lattice-based public-key encryption,'' in
  \emph{Proceedings of the 2Nd ACM International Workshop on IoT Privacy,
  Trust, and Security}, ser. IoTPTS '16.\hskip 1em plus 0.5em minus 0.4em\relax
  New York, NY, USA: ACM, 2016, pp. 2--9.

\bibitem{albrecht17}
M.~R. Albrecht, \emph{On Dual Lattice Attacks Against Small-Secret LWE and
  Parameter Choices in HElib and SEAL}.\hskip 1em plus 0.5em minus 0.4em\relax
  Cham: Springer International Publishing, 2017, pp. 103--129.

\bibitem{bogdanov07}
A.~Bogdanov, L.~R. Knudsen, G.~Leander, C.~Paar, A.~Poschmann, M.~J.~B.
  Robshaw, Y.~Seurin, and C.~Vikkelsoe, \emph{PRESENT: An Ultra-Lightweight
  Block Cipher}.\hskip 1em plus 0.5em minus 0.4em\relax Berlin, Heidelberg:
  Springer Berlin Heidelberg, 2007, pp. 450--466.

\bibitem{lindner11}
R.~Lindner and C.~Peikert, \emph{Better key sizes (and attacks) for {LWE}-based
  encryption}.\hskip 1em plus 0.5em minus 0.4em\relax Berlin, Heidelberg:
  Springer Berlin Heidelberg, 2011, pp. 319--339.

\bibitem{trivium08}
C.~De~Canni{\`e}re and B.~Preneel, \emph{Trivium}.\hskip 1em plus 0.5em minus
  0.4em\relax Berlin, Heidelberg: Springer Berlin Heidelberg, 2008, pp.
  244--266.

\bibitem{messerges00}
T.~S. Messerges, \emph{Using second-order power analysis to attack {DPA}
  resistant software}.\hskip 1em plus 0.5em minus 0.4em\relax Berlin,
  Heidelberg: Springer Berlin Heidelberg, 2000, pp. 238--251.

\bibitem{howe16}
J.~Howe, C.~Moore, M.~O'Neill, F.~Regazzoni, T.~G\"{u}neysu, and K.~Beeden,
  ``Lattice-based encryption over standard lattices in hardware,'' in
  \emph{Proceedings of the 53rd Annual Design Automation Conference}, ser. DAC
  '16.\hskip 1em plus 0.5em minus 0.4em\relax New York, NY, USA: ACM, 2016, pp.
  162:1--162:6.

\bibitem{brier04}
E.~Brier, C.~Clavier, and F.~Olivier, \emph{Correlation power analysis with a
  leakage model}.\hskip 1em plus 0.5em minus 0.4em\relax Berlin, Heidelberg:
  Springer Berlin Heidelberg, 2004, pp. 16--29.

\bibitem{schneider15}
T.~Schneider and A.~Moradi, \emph{Leakage assessment methodology}.\hskip 1em
  plus 0.5em minus 0.4em\relax Berlin, Heidelberg: Springer Berlin Heidelberg,
  2015, pp. 495--513.

\bibitem{kocher01}
P.~C. Kocher, J.~M. Jaffe, and B.~C. Jun, ``Using unpredictable information to
  minimize leakage from smartcards and other cryptosystems,'' Dec.~4 2001, uS
  Patent 6,327,661.

\end{thebibliography}
